[{"_id":588409,"name":"Tallinn","country":"EE","coord":{"lon":24.753531,"lat":59.436958}},
{"_id":592170,"name":"Harjumaa","country":"EE","coord":{"lon":24.75,"lat":59.416672}},
{"_id":590054,"name":"Muusika","country":"EE","coord":{"lon":24.47056,"lat":59.216671}},
{"_id":588334,"name":"Tartumaa","country":"EE","coord":{"lon":26.72496,"lat":58.38065}},
{"_id":588335,"name":"Tartu","country":"EE","coord":{"lon":26.72509,"lat":58.380619}},
{"_id":590856,"name":"Läänemaa","country":"EE","coord":{"lon":23.549999,"lat":58.933331}},
{"_id":590540,"name":"Lõo","country":"EE","coord":{"lon":23.693609,"lat":58.593891}},
{"_id":591189,"name":"Kõmsi","country":"EE","coord":{"lon":23.661671,"lat":58.625561}},
{"_id":588006,"name":"Uue-Virtsu","country":"EE","coord":{"lon":23.641939,"lat":58.637218}},
{"_id":794940,"name":"Tõmmiku","country":"EE","coord":{"lon":24.37278,"lat":59.327499}},
{"_id":589115,"name":"Raplamaa","country":"EE","coord":{"lon":24.783331,"lat":59.01667}},
{"_id":587882,"name":"Vaksali","country":"EE","coord":{"lon":24.83333,"lat":58.98333}},
{"_id":8181718,"name":"Viimsi","country":"EE","coord":{"lon":24.862539,"lat":59.500858}},
{"_id":798563,"name":"Toompea","country":"EE","coord":{"lon":24.73999,"lat":59.436981}},
{"_id":592075,"name":"Ida-Virumaa","country":"EE","coord":{"lon":27.25,"lat":59.400002}},
{"_id":590031,"name":"Narva","country":"EE","coord":{"lon":28.190281,"lat":59.37722}},
{"_id":588879,"name":"Saaremaa","country":"EE","coord":{"lon":22.466669,"lat":58.25}},
{"_id":590939,"name":"Kuressaare","country":"EE","coord":{"lon":22.503889,"lat":58.248058}},
{"_id":590854,"name":"Lääne-Virumaa","country":"EE","coord":{"lon":26.33333,"lat":59.366669}},
{"_id":589165,"name":"Rakvere","country":"EE","coord":{"lon":26.355829,"lat":59.34639}},
{"_id":591893,"name":"Johvi","country":"EE","coord":{"lon":27.42111,"lat":59.359169}},
{"_id":592225,"name":"Haapsalu","country":"EE","coord":{"lon":23.541389,"lat":58.943062}},
{"_id":589373,"name":"Põlva","country":"EE","coord":{"lon":27.049999,"lat":58.049999}},
{"_id":589375,"name":"Polva","country":"EE","coord":{"lon":27.069441,"lat":58.06028}},
{"_id":587448,"name":"Võrumaa","country":"EE","coord":{"lon":27.049999,"lat":57.847221}},
{"_id":587450,"name":"Voru","country":"EE","coord":{"lon":27.01944,"lat":57.833889}},
{"_id":591901,"name":"Jõgevamaa","country":"EE","coord":{"lon":26.4,"lat":58.75}},
{"_id":591902,"name":"Jogeva","country":"EE","coord":{"lon":26.39389,"lat":58.74667}},
{"_id":591260,"name":"Kohtla-Jarve","country":"EE","coord":{"lon":27.27306,"lat":59.398609}},
{"_id":592258,"name":"Ereda","country":"EE","coord":{"lon":27.236111,"lat":59.315559}},
{"_id":591263,"name":"Kohtla","country":"EE","coord":{"lon":27.22333,"lat":59.340832}},
{"_id":591961,"name":"Järvamaa","country":"EE","coord":{"lon":25.549999,"lat":58.900002}},
{"_id":589709,"name":"Paide","country":"EE","coord":{"lon":25.55722,"lat":58.885559}},
{"_id":591472,"name":"Keila","country":"EE","coord":{"lon":24.413059,"lat":59.303612}},
{"_id":587875,"name":"Valgamaa","country":"EE","coord":{"lon":26.033331,"lat":57.783329}},
{"_id":587876,"name":"Valga","country":"EE","coord":{"lon":26.0473,"lat":57.777809}},
{"_id":590552,"name":"Loksa","country":"EE","coord":{"lon":25.72139,"lat":59.576389}},
{"_id":587590,"name":"Viljandimaa","country":"EE","coord":{"lon":25.6,"lat":58.400002}},
{"_id":587577,"name":"Viljandi","country":"EE","coord":{"lon":25.59,"lat":58.363892}},
{"_id":590657,"name":"Lihula","country":"EE","coord":{"lon":23.84528,"lat":58.681389}},
{"_id":588204,"name":"Torva","country":"EE","coord":{"lon":25.934999,"lat":58.002781}},
{"_id":589576,"name":"Pärnumaa","country":"EE","coord":{"lon":24.533331,"lat":58.400002}},
{"_id":589580,"name":"Parnu","country":"EE","coord":{"lon":24.49711,"lat":58.38588}},
{"_id":592279,"name":"Elva","country":"EE","coord":{"lon":26.42111,"lat":58.2225}},
{"_id":592133,"name":"Hiiumaa","country":"EE","coord":{"lon":22.75,"lat":59}},
{"_id":591632,"name":"Kardla","country":"EE","coord":{"lon":22.74917,"lat":58.99778}},
{"_id":590977,"name":"Kunda","country":"EE","coord":{"lon":26.533331,"lat":59.48333}},
{"_id":588365,"name":"Tamsalu","country":"EE","coord":{"lon":26.11528,"lat":59.158611}},
{"_id":589116,"name":"Rapla","country":"EE","coord":{"lon":24.79278,"lat":59.007221}},
{"_id":591746,"name":"Käina","country":"EE","coord":{"lon":22.789721,"lat":58.825562}},
{"_id":591397,"name":"Kiisa","country":"EE","coord":{"lon":24.68889,"lat":59.236938}},
{"_id":588831,"name":"Saku","country":"EE","coord":{"lon":24.65778,"lat":59.302219}},
{"_id":591956,"name":"Järve","country":"EE","coord":{"lon":24.63306,"lat":59.416672}},
{"_id":794965,"name":"Mustamäe","country":"EE","coord":{"lon":24.67729,"lat":59.400822}},
{"_id":592459,"name":"Antsla","country":"EE","coord":{"lon":26.54056,"lat":57.825562}},
{"_id":590448,"name":"Maardu","country":"EE","coord":{"lon":25.025,"lat":59.428059}},
{"_id":589782,"name":"Otepää","country":"EE","coord":{"lon":26.49667,"lat":58.058331}},
{"_id":589663,"name":"Paldiski","country":"EE","coord":{"lon":24.053061,"lat":59.35667}},
{"_id":588532,"name":"Suure-Jaani","country":"EE","coord":{"lon":25.47056,"lat":58.53611}},
{"_id":794947,"name":"Odulemma","country":"EE","coord":{"lon":24.331671,"lat":59.136108}},
{"_id":592168,"name":"Harku","country":"EE","coord":{"lon":24.371111,"lat":59.1325}},
{"_id":588780,"name":"Saue","country":"EE","coord":{"lon":24.5525,"lat":59.320278}},
{"_id":590888,"name":"Kuusalu","country":"EE","coord":{"lon":25.441389,"lat":59.44389}},
{"_id":588686,"name":"Sillamae","country":"EE","coord":{"lon":27.754721,"lat":59.399719}},
{"_id":588045,"name":"Urge","country":"EE","coord":{"lon":24.65222,"lat":58.43639}},
{"_id":591283,"name":"Kõdu","country":"EE","coord":{"lon":24.63056,"lat":58.438061}},
{"_id":588531,"name":"Suurejõe","country":"EE","coord":{"lon":25.096939,"lat":58.615829}},
{"_id":591381,"name":"Kilingi-Nomme","country":"EE","coord":{"lon":24.96417,"lat":58.15028}},
{"_id":592276,"name":"Emmaste","country":"EE","coord":{"lon":22.61694,"lat":58.703609}},
{"_id":589124,"name":"Rannamõisa","country":"EE","coord":{"lon":23.783331,"lat":58.816669}},
{"_id":588209,"name":"Torma","country":"EE","coord":{"lon":26.738331,"lat":58.812778}},
{"_id":590468,"name":"Luunja","country":"EE","coord":{"lon":26.880831,"lat":58.355831}},
{"_id":589379,"name":"Poltsamaa","country":"EE","coord":{"lon":25.97056,"lat":58.6525}},
{"_id":588348,"name":"Tapa","country":"EE","coord":{"lon":25.958611,"lat":59.260559}},
{"_id":591403,"name":"Kiili","country":"EE","coord":{"lon":24.83778,"lat":59.306938}},
{"_id":589223,"name":"Raasiku","country":"EE","coord":{"lon":25.18306,"lat":59.36639}},
{"_id":591265,"name":"Kohila","country":"EE","coord":{"lon":24.7575,"lat":59.16806}},
{"_id":591264,"name":"Kohtla-Nomme","country":"EE","coord":{"lon":27.174999,"lat":59.351669}},
{"_id":590675,"name":"Lepiku","country":"EE","coord":{"lon":24.883329,"lat":59.48333}},
{"_id":591076,"name":"Kose","country":"EE","coord":{"lon":24.87833,"lat":59.458061}},
{"_id":588223,"name":"Tootsi","country":"EE","coord":{"lon":24.7925,"lat":58.57806}},
{"_id":591313,"name":"Kivioli","country":"EE","coord":{"lon":26.971109,"lat":59.353062}},
{"_id":588153,"name":"Tueri","country":"EE","coord":{"lon":25.432501,"lat":58.808609}},
{"_id":590186,"name":"Moisakula","country":"EE","coord":{"lon":25.18639,"lat":58.09222}},
{"_id":591306,"name":"Klooga","country":"EE","coord":{"lon":24.21139,"lat":59.319721}},
{"_id":589703,"name":"Paikuse","country":"EE","coord":{"lon":24.634439,"lat":58.379169}},
{"_id":590030,"name":"Narva-Joesuu","country":"EE","coord":{"lon":28.040831,"lat":59.458889}},
{"_id":587839,"name":"Valkla","country":"EE","coord":{"lon":25.318609,"lat":59.474442}},
{"_id":592077,"name":"Hüüru","country":"EE","coord":{"lon":24.52972,"lat":59.381939}},
{"_id":589796,"name":"Orissaare","country":"EE","coord":{"lon":23.082621,"lat":58.55917}},
{"_id":591703,"name":"Kallaste","country":"EE","coord":{"lon":27.15917,"lat":58.654999}},
{"_id":589531,"name":"Peetri","country":"EE","coord":{"lon":24.81333,"lat":59.394169}},
{"_id":592611,"name":"Aegviidu","country":"EE","coord":{"lon":25.61417,"lat":59.285831}},
{"_id":794995,"name":"Prillimäe","country":"EE","coord":{"lon":24.805,"lat":59.188332}},
{"_id":591476,"name":"Kehra","country":"EE","coord":{"lon":25.32111,"lat":59.336109}},
{"_id":588264,"name":"Toila","country":"EE","coord":{"lon":27.502501,"lat":59.423611}},
{"_id":590397,"name":"Mäetaguse","country":"EE","coord":{"lon":27.272221,"lat":59.229721}},
{"_id":587517,"name":"Vohma","country":"EE","coord":{"lon":25.54833,"lat":58.62833}},
{"_id":588673,"name":"Sindi","country":"EE","coord":{"lon":24.6675,"lat":58.400558}},
{"_id":588627,"name":"Sonda","country":"EE","coord":{"lon":26.83639,"lat":59.343609}},
{"_id":793246,"name":"Kolga","country":"EE","coord":{"lon":25.619169,"lat":59.486671}},
{"_id":592055,"name":"Illuka","country":"EE","coord":{"lon":27.48472,"lat":59.237782}},
{"_id":590497,"name":"Lüganuse","country":"EE","coord":{"lon":27.030279,"lat":59.380562}},
{"_id":591968,"name":"Jarva-Jaani","country":"EE","coord":{"lon":25.886391,"lat":59.038609}},
{"_id":589253,"name":"Pussi","country":"EE","coord":{"lon":27.049721,"lat":59.360001}},
{"_id":587699,"name":"Vasalemma","country":"EE","coord":{"lon":24.290001,"lat":59.244171}},
{"_id":590978,"name":"Kumna","country":"EE","coord":{"lon":24.43889,"lat":59.325001}},
{"_id":590561,"name":"Lohusuu","country":"EE","coord":{"lon":27.045,"lat":58.943611}},
{"_id":589741,"name":"Padise","country":"EE","coord":{"lon":24.14056,"lat":59.23111}},
{"_id":591382,"name":"Kilingi","country":"EE","coord":{"lon":24.98333,"lat":58.133331}},
{"_id":592607,"name":"Aespa","country":"EE","coord":{"lon":24.658609,"lat":59.19611}},
{"_id":590947,"name":"Kuremäe","country":"EE","coord":{"lon":27.53639,"lat":59.202499}},
{"_id":794956,"name":"Tutermaa","country":"EE","coord":{"lon":24.46472,"lat":59.31778}},
{"_id":589117,"name":"Rapina","country":"EE","coord":{"lon":27.46361,"lat":58.098061}},
{"_id":592209,"name":"Hageri","country":"EE","coord":{"lon":24.6525,"lat":59.163059}},
{"_id":591064,"name":"Kõue","country":"EE","coord":{"lon":25.23333,"lat":59.083328}},
{"_id":590067,"name":"Mustvee","country":"EE","coord":{"lon":26.93972,"lat":58.84861}},
{"_id":590747,"name":"Lavassaare","country":"EE","coord":{"lon":24.388889,"lat":58.511391}},
{"_id":588174,"name":"Tudulinna","country":"EE","coord":{"lon":27.085279,"lat":59.03722}},
{"_id":591450,"name":"Kernu","country":"EE","coord":{"lon":24.49968,"lat":59.13628}},
{"_id":591392,"name":"Kiiu","country":"EE","coord":{"lon":25.37944,"lat":59.447781}},
{"_id":588539,"name":"Sutlema","country":"EE","coord":{"lon":24.62361,"lat":59.173328}},
{"_id":592379,"name":"Aseri","country":"EE","coord":{"lon":26.8675,"lat":59.450562}},
{"_id":592626,"name":"Abja-Paluoja","country":"EE","coord":{"lon":25.34972,"lat":58.125278}},
{"_id":590753,"name":"Laulasmaa","country":"EE","coord":{"lon":24.229719,"lat":59.386391}},
{"_id":591919,"name":"Jõelähtme","country":"EE","coord":{"lon":25.141701,"lat":59.441059}},
{"_id":592334,"name":"Avinurme","country":"EE","coord":{"lon":26.86417,"lat":58.98222}},
{"_id":592052,"name":"Ilmandu","country":"EE","coord":{"lon":24.491671,"lat":59.445278}},
{"_id":592062,"name":"Iisaku","country":"EE","coord":{"lon":27.30806,"lat":59.101391}},
{"_id":587643,"name":"Vihasoo","country":"EE","coord":{"lon":25.8025,"lat":59.559441}},
{"_id":591523,"name":"Kasti","country":"EE","coord":{"lon":24.9,"lat":59.48333}},
{"_id":590818,"name":"Laiaküla","country":"EE","coord":{"lon":24.8925,"lat":59.46917}},
{"_id":794848,"name":"Pühalepa","country":"EE","coord":{"lon":22.98444,"lat":58.874439}},
{"_id":793505,"name":"Olgina","country":"EE","coord":{"lon":28.12528,"lat":59.395279}},
{"_id":592628,"name":"Abjaku","country":"EE","coord":{"lon":25.36194,"lat":58.109718}},
{"_id":587445,"name":"Võsu","country":"EE","coord":{"lon":25.975281,"lat":59.572498}},
{"_id":588572,"name":"Sõrve","country":"EE","coord":{"lon":24.442499,"lat":59.426109}},
{"_id":587998,"name":"Uuri","country":"EE","coord":{"lon":25.58028,"lat":59.48917}},
{"_id":590004,"name":"Nehatu","country":"EE","coord":{"lon":24.92194,"lat":59.442219}},
{"_id":863519,"name":"Iru","country":"EE","coord":{"lon":24.90778,"lat":59.459438}},
{"_id":592478,"name":"Anija","country":"EE","coord":{"lon":25.305559,"lat":59.378609}},
{"_id":588326,"name":"Tarvastu","country":"EE","coord":{"lon":25.886391,"lat":58.233059}},
{"_id":794976,"name":"Soodevahe","country":"EE","coord":{"lon":24.88139,"lat":59.410561}},
{"_id":590775,"name":"Lasnamäe","country":"EE","coord":{"lon":24.833059,"lat":59.439999}},
{"_id":589054,"name":"Reola","country":"EE","coord":{"lon":26.70722,"lat":58.29528}},
{"_id":795157,"name":"Mõigu","country":"EE","coord":{"lon":24.812969,"lat":59.406311}},
{"_id":592322,"name":"Eametsa","country":"EE","coord":{"lon":24.459721,"lat":58.428329}},
{"_id":592137,"name":"Hiiessaare","country":"EE","coord":{"lon":22.85306,"lat":58.99194}},
{"_id":590447,"name":"Maardu","country":"EE","coord":{"lon":25.025,"lat":59.476669}},
{"_id":587440,"name":"Vandra","country":"EE","coord":{"lon":25.03611,"lat":58.64806}},
{"_id":587491,"name":"Voka","country":"EE","coord":{"lon":27.581671,"lat":59.399719}},
{"_id":587571,"name":"Vinni","country":"EE","coord":{"lon":26.43222,"lat":59.29583}},
{"_id":587620,"name":"Viiratsi","country":"EE","coord":{"lon":25.63722,"lat":58.360001}},
{"_id":587629,"name":"Viimsi","country":"EE","coord":{"lon":24.84222,"lat":59.49667}},
{"_id":587826,"name":"Vana-Antsla","country":"EE","coord":{"lon":26.532221,"lat":57.866112}},
{"_id":587923,"name":"Vaike-Maarja","country":"EE","coord":{"lon":26.25,"lat":59.126389}},
{"_id":587938,"name":"Vaida","country":"EE","coord":{"lon":24.96583,"lat":59.290562}},
{"_id":588015,"name":"Uuemoisa","country":"EE","coord":{"lon":23.589439,"lat":58.939442}},
{"_id":588092,"name":"Ulenurme","country":"EE","coord":{"lon":26.72517,"lat":58.3162}},
{"_id":588157,"name":"Turba","country":"EE","coord":{"lon":24.225,"lat":59.083061}},
{"_id":588454,"name":"Tabasalu","country":"EE","coord":{"lon":24.53306,"lat":59.430279}},
{"_id":588774,"name":"Sauga","country":"EE","coord":{"lon":24.494961,"lat":58.4272}},
{"_id":588792,"name":"Sarevere","country":"EE","coord":{"lon":25.428061,"lat":58.790001}},
{"_id":589336,"name":"Pringi","country":"EE","coord":{"lon":24.79389,"lat":59.53944}},
{"_id":588922,"name":"Rummu","country":"EE","coord":{"lon":24.799721,"lat":59.535278}},
{"_id":589024,"name":"Riisipere","country":"EE","coord":{"lon":24.31056,"lat":59.11417}},
{"_id":589166,"name":"Rakke","country":"EE","coord":{"lon":26.25444,"lat":58.98167}},
{"_id":589307,"name":"Puhja","country":"EE","coord":{"lon":26.31472,"lat":58.341942}},
{"_id":589578,"name":"Parnu-Jaagupi","country":"EE","coord":{"lon":24.506889,"lat":58.610519}},
{"_id":589922,"name":"Karksi-Nuia","country":"EE","coord":{"lon":25.56278,"lat":58.103329}},
{"_id":589933,"name":"Noo","country":"EE","coord":{"lon":26.5375,"lat":58.275558}},
{"_id":590322,"name":"Marjamaa","country":"EE","coord":{"lon":24.430559,"lat":58.903889}},
{"_id":590537,"name":"Loo","country":"EE","coord":{"lon":24.94833,"lat":59.43639}},
{"_id":590976,"name":"Kunda","country":"EE","coord":{"lon":26.56111,"lat":59.484169}},
{"_id":591276,"name":"Koeru","country":"EE","coord":{"lon":26.03083,"lat":58.963058}},
{"_id":591475,"name":"Kehtna","country":"EE","coord":{"lon":24.878059,"lat":58.930279}},
{"_id":591783,"name":"Kadrina","country":"EE","coord":{"lon":26.145,"lat":59.334721}},
{"_id":591876,"name":"Jueri","country":"EE","coord":{"lon":24.894171,"lat":59.354172}},
{"_id":591965,"name":"Jarvakandi","country":"EE","coord":{"lon":24.82583,"lat":58.778889}},
{"_id":592200,"name":"Haljala","country":"EE","coord":{"lon":26.261391,"lat":59.433609}},
{"_id":592233,"name":"Haabneeme","country":"EE","coord":{"lon":24.82111,"lat":59.511391}},
{"_id":592351,"name":"Audru","country":"EE","coord":{"lon":24.37389,"lat":58.408611}},
{"_id":592396,"name":"Arukula","country":"EE","coord":{"lon":25.077221,"lat":59.364441}},
{"_id":793457,"name":"Someru","country":"EE","coord":{"lon":26.4375,"lat":59.361111}},
{"_id":793956,"name":"Tabivere","country":"EE","coord":{"lon":26.59556,"lat":58.554169}},
{"_id":794964,"name":"Laagri","country":"EE","coord":{"lon":24.61418,"lat":59.35083}},
{"_id":590385,"name":"Mägise","country":"EE","coord":{"lon":25.738331,"lat":59.137218}},
{"_id":589174,"name":"Raja","country":"EE","coord":{"lon":26.94972,"lat":58.796391}},
{"_id":588301,"name":"Tiheda","country":"EE","coord":{"lon":26.959999,"lat":58.791111}},
{"_id":794067,"name":"Madise","country":"EE","coord":{"lon":26.73056,"lat":58.243328}},
{"_id":590342,"name":"Männiku","country":"EE","coord":{"lon":24.682779,"lat":59.34333}},
{"_id":589947,"name":"Nõmme","country":"EE","coord":{"lon":24.67804,"lat":59.376411}},
{"_id":591951,"name":"Yarvekyulya","country":"EE","coord":{"lon":24.79278,"lat":59.376671}},
{"_id":794319,"name":"Kannu","country":"EE","coord":{"lon":27.13139,"lat":57.90667}},
{"_id":587977,"name":"Väänikvere","country":"EE","coord":{"lon":26.398331,"lat":58.513611}},
{"_id":590457,"name":"Määltse","country":"EE","coord":{"lon":22.76,"lat":58.852779}},
{"_id":589004,"name":"Ristivälja","country":"EE","coord":{"lon":22.771391,"lat":58.850559}}]
